#TAG,NAME IN REPO (or git url),PURPOSE (should be a verb phrase to sound right while installing)
A,i3-gaps-next-git,"A fork of i3wm tiling window manager (development branch) with more features, including gaps."
,perl-json-xs,"JSON parser for i3-save-tree functionality in i3wm"
,perl-anyevent-i3,"Communicate with the i3 window manager for i3-save-tree functionality in i3wm"
,xorg-server,"is the graphical server."
,xorg-xwininfo,"allows querying information about windows."
,xorg-xinit,"starts the graphical server."
,sxhkd,"binds key."
,ttf-inconsolata,"is the monospace font of LARBS."
,ttf-linux-libertine,"provides the sans and serif fonts for LARBS."
A,ttf-unifont,"GNU Unifont - TrueType version."
A,siji-git,"Iconic bitmap font based on stlarch with additional glyphs."
,xorg-fonts-misc,"X.org misc fonts."
A,ranger-git,"a terminal vim-based file manager."
,vifm,"is an extensive terminal file manager that everyone likes."
,ed,"is the standard editor!"
,tree,"displays a depth indented list of directories and files."
,arandr,"is a UI for screen adjustment."
,bc,"is used for a dropdown calculator."
,calcurse,"is a lightweight terminal-based calendar."
A,compton-git,"for transparancy of windows."
,xorg-xprop,"is a tool for detecting window properties."
,dosfstools,"allows your computer to access dos-like filesystems."
,libnotify,"allows desktop notifications."
,dunst,"is a suckless notification system."
A,dunstmerge,"a dunst layout manager"
,exfat-utils,"allows management of FAT drives."
G,https://github.com/budRich/sxiv.git,"Simple X Image Viewer - budRich fork."
# ,sxiv,"is a minimalist image viewer."
,xwallpaper,"sets the wallpaper for X."
A,bwp,"budlabs wallpaper selector."
,ffmpeg,"can record and splice video and audio on the command line."
,gnome-keyring,"serves as the system keyring."
A,gtk-theme-arc-gruvbox-git,"gives the dark GTK theme used in LARBS."
A,mondo-generator,"a theme template manager and generator."
,neovim,"a tidier vim with some useful features"
,python-pynvim,"Python 3 plugin support for neovim."
A,polybar-git,"A fast and easy-to-use-status bar."
,i3blocks,"is the status bar."
A,polify,"polybar hookmodule manager."
,i3lock,"is the screen lock."
A,i3ass,"A bash-script collection to assist the use of i3-wm."
,mpd,"is a lightweight music daemon."
,mpc,"is a terminal interface for mpd."
,mpv,"is the patrician's choice video player."
,ncmpcpp,"a ncurses interface for music with multiple formats and a powerful tag editor."
,networkmanager,"does exactly what it sounds like."
,newsboat,"is a terminal RSS client."
,firefox,"is the only program on LARBS your girlfriend has ever heard of."
,surf,"A simple web browser based on WebKit/GTK+."
A,surfraw-git,"Shell Users' Revolutionary Front Rage Against the Web."
#A,vivaldi-snapshot,"is an advanced browser made with the power user in mind. Snapshot."
#A,vivaldi-snapshot-ffmpeg-codecs,"proprietary codec support for vivaldi-snapshot"
#A,vivaldi-widevine,"A browser plugin designed for the viewing f premium video content - standalone for vivaldi."
,qutebrowser,"A keyboard-driven, vim-like browser based on PyQt5"
A,ttf-emojione,"is a package that gives the system unicode symbols and emojis used in the status bar and elsewhere."
A,ttf-symbola,"provides unicode and emoji symbols."
,ntfs-3g,"allows accessing NTFS partitions."
A,pacman-contrib-git,"pacman contributions."
,pulseaudio,"is the audio system (>inb4 bloat)."
,pulseaudio-alsa,"is an audio interface with ALSA."
,pulsemixer,"is an intuitive ncurses audio controller."
,imagemagick,"is a terminal image-manipulator providing some convenient shortcuts and the lockscreen in LARBS."
A,sc-im,"is an Excel-like terminal spreadsheet manager."
A,htop-vim-git,"provides system usage information and displays processes."
,maim,"Utility to take a screenshot using imlib2. Can take quick screenshots at your request."
,socat,"is a socket utility."
,tmux,"is a terminal multiplexer and the dropdown window in LARBS."
# ,unclutter,"hides an inactive mouse."
A,xbanish,"hides the mouse cursor when typing."
A,rxvt-unicode-patched,"Unicode enabled rxvt-clone terminal emulater (urxvt) with fixed font spacing."
A,bashbud,"Generate documents and manage projects."
,unrar,"extracts rar's."
,unzip,"unzips zips."
,p7zip,"CLI file archiver with high compression ratio."
A,urlscan,"parses URLs in the terminal allowing keyboard-based selection."
,w3m,"is a terminal browser which can also view images."
,xcape,"gives the special escape/super mappings of LARBS."
,xclip,"allows for copying and pasting from the command line."
,xsel,"a CLI program for getting and setting the X selection contents."
,xdotool,"provides window action utilities on the command line."
,wmctrl,"control EWMH compliant window manager from CLI."
,xorg-xdpyinfo,"aids with resolution determination and screen recording."
,youtube-dl,"can download any YouTube video (or playlist or channel) when given the link."
,rtmpdump,"rmtp stream support for youtube-dl."
,atomicparsley,"m4a thumbnail embedding for youtube-dl."
,python-pycryptodome,"hlsnative downloader support for youtube-dl."
A,youtube-viewer-git,"CLI utility for searching and streaming YouTube videos."
,zathura,"minimalistic document viewer with vim-like bindings."
,zathura-cb,"comic book support for zathura"
,zathura-djvu,"gives zathura the ability to read .djvu files."
,zathura-pdf-mupdf,"adds .pdf, .epub, OpenXPS support to zathura."
,zathura-ps,"adds .ps support to zathura by using the libspectre library"
A,python-ueberzug,"generates image previews in vifm and other terminal programs."
,poppler,"manipulates .pdfs and gives .pdf previews and other .pdf functions."
,mediainfo,"shows audio and video information and is used by vifm/ranger as well."
,atool,"manages and gives information about archives."
,fzf,"is a fuzzy finder tool."
,highlight,"can highlight code output."
,perl-image-exiftool,"EXIF info reader and rewriter with raw file support."
,transmission-cli,"fast, easy, and free BitTorrent client (CLI tools, daemon, web client)."
,python-chardet,"Python3 module for character encoding auto-detection."
,xorg-xbacklight,"enables changing screen brightness levels."
A,task-spooler,"queues commands or files for download."
A,simple-mtpfs,"enables the mounting of cell phones."
G,https://github.com/lukesmithxyz/dmenu.git,"runs commands and provides a UI for selection - Luke's fork."
G,https://github.com/lukesmithxyz/st.git,"Luke's custom build of suckless's terminal emulator."
,docx2txt,"enables .docx file previews in vifm."
,odt2txt,"enables .odt file previews in vifm."
,imagemagick,"An image viewing/manipulation program."
,abook,"Text-based addressbook designed for use with mutt."
A,urlview-git,"A curses URL parser for text files. Git version."
A,pam-gnupg-git,"Unlock GnuPG keys on login."
,fcron,"Feature-rich cron implementation."
A,mutt-wizard-git,"A simple interface to auto-configure neomutt and isync with safe passwors."
